{
    "mongodb": {
        "url": "mongodb://root:123456@localhost/enext-labs-apps-iam-web-service-v1?authSource=admin",
        "options": {
            "useNewUrlParser": true,
            "useCreateIndex": true,
            "autoIndex": false,
            "useUnifiedTopology": true
        },
        "waitForMongoTimeout": 900000
    },
    "jwt": {
        "secretKey": "2b6d2d62c36f5781f7fedd3b18a2ddff794a71c8d9db58586a751e90a507da2410cbf2af384c8a37d797d95aa646924b7c32d445b1d08d40be7e9faa2034e267",
        "expiresIn": 31536000
    },
    "defaultListQueryParameters": {
        "limit": 64,
        "page": 1
    },
    "pagination": {
        "minPage": 1,
        "maxPage": 256,
        "minLimit": 1,
        "maxLimit": 256
    },
    "bycrypt": {
        "rounds": 12
    }
}
